mc20_13TeV.345111.PowhegPythia8EvtGen_NNPDF3_AZNLO_ZH125J_MINLO_llcc_VpT.deriv.DAOD_PHYS.e5765_s3681_r13144_p5658
mc20_13TeV.345111.PowhegPythia8EvtGen_NNPDF3_AZNLO_ZH125J_MINLO_llcc_VpT.deriv.DAOD_PHYS.e5765_s3681_r13145_p5658
mc20_13TeV.345111.PowhegPythia8EvtGen_NNPDF3_AZNLO_ZH125J_MINLO_llcc_VpT.deriv.DAOD_PHYS.e5765_s3681_r13167_p5658
mc20_13TeV.345112.PowhegPythia8EvtGen_NNPDF3_AZNLO_ZH125J_MINLO_vvcc_VpT.deriv.DAOD_PHYS.e5765_s3681_r13144_p5658
mc20_13TeV.345112.PowhegPythia8EvtGen_NNPDF3_AZNLO_ZH125J_MINLO_vvcc_VpT.deriv.DAOD_PHYS.e5765_s3681_r13145_p5658
mc20_13TeV.345112.PowhegPythia8EvtGen_NNPDF3_AZNLO_ZH125J_MINLO_vvcc_VpT.deriv.DAOD_PHYS.e5765_s3681_r13167_p5658
mc20_13TeV.345113.PowhegPythia8EvtGen_NNPDF3_AZNLO_ggZH125_llcc.deriv.DAOD_PHYS.e5765_s3681_r13144_p5658
mc20_13TeV.345113.PowhegPythia8EvtGen_NNPDF3_AZNLO_ggZH125_llcc.deriv.DAOD_PHYS.e5765_s3681_r13145_p5658
mc20_13TeV.345113.PowhegPythia8EvtGen_NNPDF3_AZNLO_ggZH125_llcc.deriv.DAOD_PHYS.e5765_s3681_r13167_p5658
